{
    "artists": {
        "items": [
            {
                "external_urls": {
                    "spotify": "https://open.spotify.com/artist/04gDigrS5kc9YWfZHwBETP"
                },
                "followers": {
                    "href": null,
                    "total": 38326522
                },
                "genres": [
                    "pop"
                ],
                "href": "https://api.spotify.com/v1/artists/04gDigrS5kc9YWfZHwBETP",
                "id": "04gDigrS5kc9YWfZHwBETP",
                "images": [
                    {
                        "height": 640,
                        "url": "https://i.scdn.co/image/ab6761610000e5eb288ac05481cedc5bddb5b11b",
                        "width": 640
                    },
                    {
                        "height": 320,
                        "url": "https://i.scdn.co/image/ab67616100005174288ac05481cedc5bddb5b11b",
                        "width": 320
                    },
                    {
                        "height": 160,
                        "url": "https://i.scdn.co/image/ab6761610000f178288ac05481cedc5bddb5b11b",
                        "width": 160
                    }
                ],
                "name": "Maroon 5",
                "popularity": 85,
                "type": "artist",
                "uri": "spotify:artist:04gDigrS5kc9YWfZHwBETP"
            },
            {
                "external_urls": {
                    "spotify": "https://open.spotify.com/artist/06HL4z0CvFAxyc27GXpf02"
                },
                "followers": {
                    "href": null,
                    "total": 60949737
                },
                "genres": [
                    "pop"
                ],
                "href": "https://api.spotify.com/v1/artists/06HL4z0CvFAxyc27GXpf02",
                "id": "06HL4z0CvFAxyc27GXpf02",
                "images": [
                    {
                        "height": 640,
                        "url": "https://i.scdn.co/image/ab6761610000e5eb5a00969a4698c3132a15fbb0",
                        "width": 640
                    },
                    {
                        "height": 320,
                        "url": "https://i.scdn.co/image/ab676161000051745a00969a4698c3132a15fbb0",
                        "width": 320
                    },
                    {
                        "height": 160,
                        "url": "https://i.scdn.co/image/ab6761610000f1785a00969a4698c3132a15fbb0",
                        "width": 160
                    }
                ],
                "name": "Taylor Swift",
                "popularity": 100,
                "type": "artist",
                "uri": "spotify:artist:06HL4z0CvFAxyc27GXpf02"
            },
            {
                "external_urls": {
                    "spotify": "https://open.spotify.com/artist/0L8ExT028jH3ddEcZwqJJ5"
                },
                "followers": {
                    "href": null,
                    "total": 18566886
                },
                "genres": [
                    "alternative rock",
                    "funk metal",
                    "funk rock",
                    "permanent wave"
                ],
                "href": "https://api.spotify.com/v1/artists/0L8ExT028jH3ddEcZwqJJ5",
                "id": "0L8ExT028jH3ddEcZwqJJ5",
                "images": [
                    {
                        "height": 640,
                        "url": "https://i.scdn.co/image/ab6761610000e5ebc33cc15260b767ddec982ce8",
                        "width": 640
                    },
                    {
                        "height": 320,
                        "url": "https://i.scdn.co/image/ab67616100005174c33cc15260b767ddec982ce8",
                        "width": 320
                    },
                    {
                        "height": 160,
                        "url": "https://i.scdn.co/image/ab6761610000f178c33cc15260b767ddec982ce8",
                        "width": 160
                    }
                ],
                "name": "Red Hot Chili Peppers",
                "popularity": 83,
                "type": "artist",
                "uri": "spotify:artist:0L8ExT028jH3ddEcZwqJJ5"
            },
            {
                "external_urls": {
                    "spotify": "https://open.spotify.com/artist/0dEvJpkqhrcn64d3oI8v79"
                },
                "followers": {
                    "href": null,
                    "total": 686290
                },
                "genres": [
                    "canadian pop",
                    "canadian rock",
                    "comic",
                    "neo mellow",
                    "pop rock"
                ],
                "href": "https://api.spotify.com/v1/artists/0dEvJpkqhrcn64d3oI8v79",
                "id": "0dEvJpkqhrcn64d3oI8v79",
                "images": [
                    {
                        "height": 640,
                        "url": "https://i.scdn.co/image/ab6761610000e5ebd830befbfdc1c0428ffbe9bc",
                        "width": 640
                    },
                    {
                        "height": 320,
                        "url": "https://i.scdn.co/image/ab67616100005174d830befbfdc1c0428ffbe9bc",
                        "width": 320
                    },
                    {
                        "height": 160,
                        "url": "https://i.scdn.co/image/ab6761610000f178d830befbfdc1c0428ffbe9bc",
                        "width": 160
                    }
                ],
                "name": "Barenaked Ladies",
                "popularity": 59,
                "type": "artist",
                "uri": "spotify:artist:0dEvJpkqhrcn64d3oI8v79"
            },
            {
                "external_urls": {
                    "spotify": "https://open.spotify.com/artist/0du5cEVh5yTK9QJze8zA0C"
                },
                "followers": {
                    "href": null,
                    "total": 43904896
                },
                "genres": [
                    "dance pop",
                    "pop"
                ],
                "href": "https://api.spotify.com/v1/artists/0du5cEVh5yTK9QJze8zA0C",
                "id": "0du5cEVh5yTK9QJze8zA0C",
                "images": [
                    {
                        "height": 640,
                        "url": "https://i.scdn.co/image/ab6761610000e5ebc36dd9eb55fb0db4911f25dd",
                        "width": 640
                    },
                    {
                        "height": 320,
                        "url": "https://i.scdn.co/image/ab67616100005174c36dd9eb55fb0db4911f25dd",
                        "width": 320
                    },
                    {
                        "height": 160,
                        "url": "https://i.scdn.co/image/ab6761610000f178c36dd9eb55fb0db4911f25dd",
                        "width": 160
                    }
                ],
                "name": "Bruno Mars",
                "popularity": 87,
                "type": "artist",
                "uri": "spotify:artist:0du5cEVh5yTK9QJze8zA0C"
            },
            {
                "external_urls": {
                    "spotify": "https://open.spotify.com/artist/0hEurMDQu99nJRq8pTxO14"
                },
                "followers": {
                    "href": null,
                    "total": 5662295
                },
                "genres": [
                    "neo mellow",
                    "singer-songwriter"
                ],
                "href": "https://api.spotify.com/v1/artists/0hEurMDQu99nJRq8pTxO14",
                "id": "0hEurMDQu99nJRq8pTxO14",
                "images": [
                    {
                        "height": 640,
                        "url": "https://i.scdn.co/image/ab6761610000e5eb265ef5547ecff4dabd6352bf",
                        "width": 640
                    },
                    {
                        "height": 320,
                        "url": "https://i.scdn.co/image/ab67616100005174265ef5547ecff4dabd6352bf",
                        "width": 320
                    },
                    {
                        "height": 160,
                        "url": "https://i.scdn.co/image/ab6761610000f178265ef5547ecff4dabd6352bf",
                        "width": 160
                    }
                ],
                "name": "John Mayer",
                "popularity": 77,
                "type": "artist",
                "uri": "spotify:artist:0hEurMDQu99nJRq8pTxO14"
            },
            {
                "external_urls": {
                    "spotify": "https://open.spotify.com/artist/0vEsuISMWAKNctLlUAhSZC"
                },
                "followers": {
                    "href": null,
                    "total": 1554579
                },
                "genres": [
                    "alternative rock",
                    "neo mellow",
                    "pop rock",
                    "rock"
                ],
                "href": "https://api.spotify.com/v1/artists/0vEsuISMWAKNctLlUAhSZC",
                "id": "0vEsuISMWAKNctLlUAhSZC",
                "images": [
                    {
                        "height": 640,
                        "url": "https://i.scdn.co/image/ab6761610000e5eba6f88c86470fd6350f4a5535",
                        "width": 640
                    },
                    {
                        "height": 320,
                        "url": "https://i.scdn.co/image/ab67616100005174a6f88c86470fd6350f4a5535",
                        "width": 320
                    },
                    {
                        "height": 160,
                        "url": "https://i.scdn.co/image/ab6761610000f178a6f88c86470fd6350f4a5535",
                        "width": 160
                    }
                ],
                "name": "Counting Crows",
                "popularity": 68,
                "type": "artist",
                "uri": "spotify:artist:0vEsuISMWAKNctLlUAhSZC"
            },
            {
                "external_urls": {
                    "spotify": "https://open.spotify.com/artist/0zOcE3mg9nS6l3yxt1Y0bK"
                },
                "followers": {
                    "href": null,
                    "total": 3741494
                },
                "genres": [
                    "neo mellow",
                    "piano rock",
                    "pop",
                    "pop rock"
                ],
                "href": "https://api.spotify.com/v1/artists/0zOcE3mg9nS6l3yxt1Y0bK",
                "id": "0zOcE3mg9nS6l3yxt1Y0bK",
                "images": [
                    {
                        "height": 640,
                        "url": "https://i.scdn.co/image/ab6761610000e5eb0f1175c762fb80f71469b344",
                        "width": 640
                    },
                    {
                        "height": 320,
                        "url": "https://i.scdn.co/image/ab676161000051740f1175c762fb80f71469b344",
                        "width": 320
                    },
                    {
                        "height": 160,
                        "url": "https://i.scdn.co/image/ab6761610000f1780f1175c762fb80f71469b344",
                        "width": 160
                    }
                ],
                "name": "The Fray",
                "popularity": 68,
                "type": "artist",
                "uri": "spotify:artist:0zOcE3mg9nS6l3yxt1Y0bK"
            },
            {
                "external_urls": {
                    "spotify": "https://open.spotify.com/artist/1McMsnEElThX1knmY4oliG"
                },
                "followers": {
                    "href": null,
                    "total": 21492337
                },
                "genres": [
                    "pop"
                ],
                "href": "https://api.spotify.com/v1/artists/1McMsnEElThX1knmY4oliG",
                "id": "1McMsnEElThX1knmY4oliG",
                "images": [
                    {
                        "height": 640,
                        "url": "https://i.scdn.co/image/ab6761610000e5ebee954a3b5418065c2fe253fb",
                        "width": 640
                    },
                    {
                        "height": 320,
                        "url": "https://i.scdn.co/image/ab67616100005174ee954a3b5418065c2fe253fb",
                        "width": 320
                    },
                    {
                        "height": 160,
                        "url": "https://i.scdn.co/image/ab6761610000f178ee954a3b5418065c2fe253fb",
                        "width": 160
                    }
                ],
                "name": "Olivia Rodrigo",
                "popularity": 84,
                "type": "artist",
                "uri": "spotify:artist:1McMsnEElThX1knmY4oliG"
            },
            {
                "external_urls": {
                    "spotify": "https://open.spotify.com/artist/1dfeR4HaWDbWqFHLkxsg1d"
                },
                "followers": {
                    "href": null,
                    "total": 43330331
                },
                "genres": [
                    "classic rock",
                    "glam rock",
                    "rock"
                ],
                "href": "https://api.spotify.com/v1/artists/1dfeR4HaWDbWqFHLkxsg1d",
                "id": "1dfeR4HaWDbWqFHLkxsg1d",
                "images": [
                    {
                        "height": 806,
                        "url": "https://i.scdn.co/image/b040846ceba13c3e9c125d68389491094e7f2982",
                        "width": 999
                    },
                    {
                        "height": 516,
                        "url": "https://i.scdn.co/image/af2b8e57f6d7b5d43a616bd1e27ba552cd8bfd42",
                        "width": 640
                    },
                    {
                        "height": 161,
                        "url": "https://i.scdn.co/image/c06971e9ff81696699b829484e3be165f4e64368",
                        "width": 200
                    },
                    {
                        "height": 52,
                        "url": "https://i.scdn.co/image/6dd0ffd270903d1884edf9058c49f58b03db893d",
                        "width": 64
                    }
                ],
                "name": "Queen",
                "popularity": 84,
                "type": "artist",
                "uri": "spotify:artist:1dfeR4HaWDbWqFHLkxsg1d"
            },
            {
                "external_urls": {
                    "spotify": "https://open.spotify.com/artist/1g1yxsNVPhMUl9GrMjEb2o"
                },
                "followers": {
                    "href": null,
                    "total": 1110922
                },
                "genres": [
                    "neo mellow",
                    "pop punk",
                    "pop rock"
                ],
                "href": "https://api.spotify.com/v1/artists/1g1yxsNVPhMUl9GrMjEb2o",
                "id": "1g1yxsNVPhMUl9GrMjEb2o",
                "images": [
                    {
                        "height": 640,
                        "url": "https://i.scdn.co/image/ab6761610000e5eb2ae1234c04646fbe94100746",
                        "width": 640
                    },
                    {
                        "height": 320,
                        "url": "https://i.scdn.co/image/ab676161000051742ae1234c04646fbe94100746",
                        "width": 320
                    },
                    {
                        "height": 160,
                        "url": "https://i.scdn.co/image/ab6761610000f1782ae1234c04646fbe94100746",
                        "width": 160
                    }
                ],
                "name": "Plain White T's",
                "popularity": 63,
                "type": "artist",
                "uri": "spotify:artist:1g1yxsNVPhMUl9GrMjEb2o"
            },
            {
                "external_urls": {
                    "spotify": "https://open.spotify.com/artist/2RTUTCvo6onsAnheUk3aL9"
                },
                "followers": {
                    "href": null,
                    "total": 3830748
                },
                "genres": [
                    "alternative metal",
                    "nu metal",
                    "pop rock",
                    "post-grunge"
                ],
                "href": "https://api.spotify.com/v1/artists/2RTUTCvo6onsAnheUk3aL9",
                "id": "2RTUTCvo6onsAnheUk3aL9",
                "images": [
                    {
                        "height": 640,
                        "url": "https://i.scdn.co/image/ab6761610000e5ebe259ee48201f121644cdf8a2",
                        "width": 640
                    },
                    {
                        "height": 320,
                        "url": "https://i.scdn.co/image/ab67616100005174e259ee48201f121644cdf8a2",
                        "width": 320
                    },
                    {
                        "height": 160,
                        "url": "https://i.scdn.co/image/ab6761610000f178e259ee48201f121644cdf8a2",
                        "width": 160
                    }
                ],
                "name": "3 Doors Down",
                "popularity": 69,
                "type": "artist",
                "uri": "spotify:artist:2RTUTCvo6onsAnheUk3aL9"
            },
            {
                "external_urls": {
                    "spotify": "https://open.spotify.com/artist/2iEvnFsWxR0Syqu2JNopAd"
                },
                "followers": {
                    "href": null,
                    "total": 895393
                },
                "genres": [
                    "alternative rock",
                    "pop rock"
                ],
                "href": "https://api.spotify.com/v1/artists/2iEvnFsWxR0Syqu2JNopAd",
                "id": "2iEvnFsWxR0Syqu2JNopAd",
                "images": [
                    {
                        "height": 640,
                        "url": "https://i.scdn.co/image/ab6761610000e5eb3dbd24cf00deb3d4b8890f1c",
                        "width": 640
                    },
                    {
                        "height": 320,
                        "url": "https://i.scdn.co/image/ab676161000051743dbd24cf00deb3d4b8890f1c",
                        "width": 320
                    },
                    {
                        "height": 160,
                        "url": "https://i.scdn.co/image/ab6761610000f1783dbd24cf00deb3d4b8890f1c",
                        "width": 160
                    }
                ],
                "name": "Smash Mouth",
                "popularity": 65,
                "type": "artist",
                "uri": "spotify:artist:2iEvnFsWxR0Syqu2JNopAd"
            },
            {
                "external_urls": {
                    "spotify": "https://open.spotify.com/artist/2p4FqHnazRucYQHyDCdBrJ"
                },
                "followers": {
                    "href": null,
                    "total": 3238787
                },
                "genres": [
                    "canadian pop punk",
                    "canadian punk",
                    "canadian rock",
                    "pop punk"
                ],
                "href": "https://api.spotify.com/v1/artists/2p4FqHnazRucYQHyDCdBrJ",
                "id": "2p4FqHnazRucYQHyDCdBrJ",
                "images": [
                    {
                        "height": 640,
                        "url": "https://i.scdn.co/image/ab6761610000e5eb14be52ba7ed12e0177ebe08b",
                        "width": 640
                    },
                    {
                        "height": 320,
                        "url": "https://i.scdn.co/image/ab6761610000517414be52ba7ed12e0177ebe08b",
                        "width": 320
                    },
                    {
                        "height": 160,
                        "url": "https://i.scdn.co/image/ab6761610000f17814be52ba7ed12e0177ebe08b",
                        "width": 160
                    }
                ],
                "name": "Simple Plan",
                "popularity": 68,
                "type": "artist",
                "uri": "spotify:artist:2p4FqHnazRucYQHyDCdBrJ"
            },
            {
                "external_urls": {
                    "spotify": "https://open.spotify.com/artist/2sil8z5kiy4r76CRTXxBCA"
                },
                "followers": {
                    "href": null,
                    "total": 2349088
                },
                "genres": [
                    "neo mellow",
                    "permanent wave",
                    "pop rock"
                ],
                "href": "https://api.spotify.com/v1/artists/2sil8z5kiy4r76CRTXxBCA",
                "id": "2sil8z5kiy4r76CRTXxBCA",
                "images": [
                    {
                        "height": 640,
                        "url": "https://i.scdn.co/image/ab6761610000e5ebd06647dddf0f321a49934437",
                        "width": 640
                    },
                    {
                        "height": 320,
                        "url": "https://i.scdn.co/image/ab67616100005174d06647dddf0f321a49934437",
                        "width": 320
                    },
                    {
                        "height": 160,
                        "url": "https://i.scdn.co/image/ab6761610000f178d06647dddf0f321a49934437",
                        "width": 160
                    }
                ],
                "name": "The Goo Goo Dolls",
                "popularity": 70,
                "type": "artist",
                "uri": "spotify:artist:2sil8z5kiy4r76CRTXxBCA"
            },
            {
                "external_urls": {
                    "spotify": "https://open.spotify.com/artist/306JHpIRGVaQd6OltnOzUO"
                },
                "followers": {
                    "href": null,
                    "total": 87654
                },
                "genres": [
                    "neo mellow",
                    "pop rock"
                ],
                "href": "https://api.spotify.com/v1/artists/306JHpIRGVaQd6OltnOzUO",
                "id": "306JHpIRGVaQd6OltnOzUO",
                "images": [
                    {
                        "height": 640,
                        "url": "https://i.scdn.co/image/ab6761610000e5ebe12db6e9068b1c366f8d36a1",
                        "width": 640
                    },
                    {
                        "height": 320,
                        "url": "https://i.scdn.co/image/ab67616100005174e12db6e9068b1c366f8d36a1",
                        "width": 320
                    },
                    {
                        "height": 160,
                        "url": "https://i.scdn.co/image/ab6761610000f178e12db6e9068b1c366f8d36a1",
                        "width": 160
                    }
                ],
                "name": "Nine Days",
                "popularity": 51,
                "type": "artist",
                "uri": "spotify:artist:306JHpIRGVaQd6OltnOzUO"
            },
            {
                "external_urls": {
                    "spotify": "https://open.spotify.com/artist/3AQRLZ9PuTAozP28Skbq8V"
                },
                "followers": {
                    "href": null,
                    "total": 7530637
                },
                "genres": [
                    "celtic rock",
                    "neo mellow",
                    "pop",
                    "pop rock",
                    "uk pop"
                ],
                "href": "https://api.spotify.com/v1/artists/3AQRLZ9PuTAozP28Skbq8V",
                "id": "3AQRLZ9PuTAozP28Skbq8V",
                "images": [
                    {
                        "height": 640,
                        "url": "https://i.scdn.co/image/ab6761610000e5ebf01bf904b446e4a043acb867",
                        "width": 640
                    },
                    {
                        "height": 320,
                        "url": "https://i.scdn.co/image/ab67616100005174f01bf904b446e4a043acb867",
                        "width": 320
                    },
                    {
                        "height": 160,
                        "url": "https://i.scdn.co/image/ab6761610000f178f01bf904b446e4a043acb867",
                        "width": 160
                    }
                ],
                "name": "The Script",
                "popularity": 73,
                "type": "artist",
                "uri": "spotify:artist:3AQRLZ9PuTAozP28Skbq8V"
            },
            {
                "external_urls": {
                    "spotify": "https://open.spotify.com/artist/3FUY2gzHeIiaesXtOAdB7A"
                },
                "followers": {
                    "href": null,
                    "total": 4143106
                },
                "genres": [
                    "dance pop",
                    "neo mellow",
                    "pop",
                    "pop rock"
                ],
                "href": "https://api.spotify.com/v1/artists/3FUY2gzHeIiaesXtOAdB7A",
                "id": "3FUY2gzHeIiaesXtOAdB7A",
                "images": [
                    {
                        "height": 640,
                        "url": "https://i.scdn.co/image/ab6761610000e5eb9ac5323dcebb1c7b80dcaf64",
                        "width": 640
                    },
                    {
                        "height": 320,
                        "url": "https://i.scdn.co/image/ab676161000051749ac5323dcebb1c7b80dcaf64",
                        "width": 320
                    },
                    {
                        "height": 160,
                        "url": "https://i.scdn.co/image/ab6761610000f1789ac5323dcebb1c7b80dcaf64",
                        "width": 160
                    }
                ],
                "name": "Train",
                "popularity": 71,
                "type": "artist",
                "uri": "spotify:artist:3FUY2gzHeIiaesXtOAdB7A"
            },
            {
                "external_urls": {
                    "spotify": "https://open.spotify.com/artist/3GBPw9NK25X1Wt2OUvOwY3"
                },
                "followers": {
                    "href": null,
                    "total": 3488358
                },
                "genres": [
                    "neo mellow"
                ],
                "href": "https://api.spotify.com/v1/artists/3GBPw9NK25X1Wt2OUvOwY3",
                "id": "3GBPw9NK25X1Wt2OUvOwY3",
                "images": [
                    {
                        "height": 640,
                        "url": "https://i.scdn.co/image/ab6761610000e5eb9555a0b3231117c8cde1fca7",
                        "width": 640
                    },
                    {
                        "height": 320,
                        "url": "https://i.scdn.co/image/ab676161000051749555a0b3231117c8cde1fca7",
                        "width": 320
                    },
                    {
                        "height": 160,
                        "url": "https://i.scdn.co/image/ab6761610000f1789555a0b3231117c8cde1fca7",
                        "width": 160
                    }
                ],
                "name": "Jack Johnson",
                "popularity": 75,
                "type": "artist",
                "uri": "spotify:artist:3GBPw9NK25X1Wt2OUvOwY3"
            },
            {
                "external_urls": {
                    "spotify": "https://open.spotify.com/artist/3Ngh2zDBRPEriyxQDAMKd1"
                },
                "followers": {
                    "href": null,
                    "total": 2208473
                },
                "genres": [
                    "neo mellow",
                    "pop rock",
                    "post-grunge"
                ],
                "href": "https://api.spotify.com/v1/artists/3Ngh2zDBRPEriyxQDAMKd1",
                "id": "3Ngh2zDBRPEriyxQDAMKd1",
                "images": [
                    {
                        "height": 640,
                        "url": "https://i.scdn.co/image/ab6761610000e5eb680eb4b20f3a0ccdfd1c934d",
                        "width": 640
                    },
                    {
                        "height": 320,
                        "url": "https://i.scdn.co/image/ab67616100005174680eb4b20f3a0ccdfd1c934d",
                        "width": 320
                    },
                    {
                        "height": 160,
                        "url": "https://i.scdn.co/image/ab6761610000f178680eb4b20f3a0ccdfd1c934d",
                        "width": 160
                    }
                ],
                "name": "Matchbox Twenty",
                "popularity": 65,
                "type": "artist",
                "uri": "spotify:artist:3Ngh2zDBRPEriyxQDAMKd1"
            }
        ],
        "next": "https://api.spotify.com/v1/me/following?type=artist&after=3Ngh2zDBRPEriyxQDAMKd1&limit=20",
        "total": 43,
        "cursors": {
            "after": "3Ngh2zDBRPEriyxQDAMKd1"
        },
        "limit": 20,
        "href": "https://api.spotify.com/v1/me/following?type=artist&limit=20"
    }
}